Removes or flags groups failed to meet conditions based on dates — restrict_date • healthdb
…
    Examples

sample_size <- 30
df <- data.frame(clnt_id = sample(1:sample_size, sample_size, replace = TRUE),
 service_dt = sample(seq(as.Date("2020-01-01"), as.Date("2020-01-31"), by = 1),
                     size = sample_size, replace = TRUE),
 diagx = sample(letters, size = sample_size, replace = TRUE),
 diagx_1 = sample(c(NA, letters), size = sample_size, replace = TRUE),
 diagx_2 = sample(c(NA, letters), size = sample_size, replace = TRUE))

#Keep clients with 2 records that were 1 week apart within 1 month
restrict_date(df, clnt_id, service_dt, n = 2, apart = 7, within = 30)
#> 
#>  Of the 19 clients in the input, 14 were flagged as 0 by restricting that each client must have 2 records that were at least 7 days apart within 30 days. 
#> # A tibble: 30 × 6
#>    clnt_id service_dt diagx diagx_1 diagx_2 flag_restrict_date
#>      <int> <date>     <chr> <chr>   <chr>                <dbl>
#>  1       1 2020-01-09 k     r       s                        0
#>  2       1 2020-01-11 f     r       n                        0
#>  3       2 2020-01-12 t     w       x                        0
#>  4       2 2020-01-17 p     j       c                        0
#>  5       5 2020-01-21 l     a       y                        0
#>  6       6 2020-01-20 o     j       x                        0
#>  7       6 2020-01-20 w     b       l                        0
#>  8       7 2020-01-14 b     k       g                        0
#>  9       8 2020-01-14 t     c       z                        1
#> 10       8 2020-01-22 u     m       a                        0
#> # ℹ 20 more rows
…
