…
``` r
bind_source(result_list,
  # output_name = c(names in the list elements)
  src = "src",
  uid = "uid",
  clnt_id = "clnt_id",
  flag = c("flag_restrict_date", NA),
  # force_proceed is needed to collect remote tables to local memory
  force_proceed = TRUE
)
#> # A tibble: 100 × 5
#>    src_No src     uid clnt_id  flag
#>     <int> <chr> <int>   <int> <int>
#>  1      1 claim    25       3     0
#>  2      1 claim    46       4     0
#>  3      1 claim    40       5     0
#>  4      1 claim    10       8     0
#>  5      1 claim    41      12     0
#>  6      1 claim    22      13     0
#>  7      1 claim     3      15     0
#>  8      1 claim    14      16     0
#>  9      1 claim    26      17     0
#> 10      1 claim     1      18     0
#> # ℹ 90 more rows
```
…
``` r
pool_case(result_list,
  def = sud_def,
  # your could skip summary with output_lvl = "raw"
  output_lvl = "clnt",
  # include records only from sources having valid records, see function documentation for more detail and other options
  include_src = "has_valid",
  force_proceed = TRUE
)
#> # A tibble: 29 × 10
#>    def   clnt_id first_valid_date first_valid_src last_entry_date last_entry_src
#>    <chr>   <int>            <dbl> <chr>                     <dbl> <chr>         
#>  1 SUD         1            18064 hosp                      18064 hosp          
#>  2 SUD         4            16625 hosp                      17279 hosp          
#>  3 SUD         5            16614 hosp                      17414 hosp          
#>  4 SUD         7            17700 hosp                      17865 hosp          
#>  5 SUD         8            17821 hosp                      18135 hosp          
#>  6 SUD         9            17637 hosp                      18344 hosp          
#>  7 SUD        11            17675 hosp                      18395 hosp          
#>  8 SUD        12            17888 hosp                      17888 hosp          
#>  9 SUD        13            18342 hosp                      18342 hosp          
#> 10 SUD        16            18088 hosp                      18088 hosp          
#> # ℹ 19 more rows
#> # ℹ 4 more variables: raw_in_claim <dbl>, raw_in_hosp <dbl>,
#> #   valid_in_claim <int>, valid_in_hosp <int>
```
