Introduction to healthdb • healthdb
…
bind_source(result_list,
  # output_name = c(names in the list elements)
  src = "src",
  uid = "uid",
  clnt_id = "clnt_id",
  flag = c("flag_restrict_date", NA),
  # force_proceed is needed to collect remote tables to local memory
  force_proceed = TRUE
)
#> # A tibble: 100 × 5
#>    src_No src     uid clnt_id  flag
#>     <int> <chr> <int>   <int> <int>
#>  1      1 claim    25       3     0
#>  2      1 claim    46       4     0
#>  3      1 claim    40       5     0
#>  4      1 claim    10       8     0
#>  5      1 claim    41      12     0
#>  6      1 claim    22      13     0
#>  7      1 claim     3      15     0
#>  8      1 claim    14      16     0
#>  9      1 claim    26      17     0
#> 10      1 claim     1      18     0
#> # ℹ 90 more rows

pool_case() goes a few steps further than row bind. It
also filters records with valid flags and can summarize by client/group.
Since we had to decide which variables to be summarized in advance, the
output may not be flexible enough to meet your needs.

pool_case(result_list,
          def = sud_def,
          # your could skip summary with output_lvl = "raw"
          output_lvl = "clnt",
          # include records only from sources having valid records, see function documentation for more detail and other options
          include_src = "has_valid",
          force_proceed = TRUE)
#> # A tibble: 29 × 8
#>    def   clnt_id first_valid_date last_entry_date raw_in_claim raw_in_hosp
#>    <chr>   <int>            <dbl>           <dbl>        <dbl>       <dbl>
#>  1 SUD         1            18064           18064            0           1
#>  2 SUD         4            16625           17279            0           2
#>  3 SUD         5            16614           17414            0           3
#>  4 SUD         7            17700           17865            0           2
#>  5 SUD         8            17821           18135            0           2
#>  6 SUD         9            17637           18344            0           3
#>  7 SUD        11            17675           18395            0           3
#>  8 SUD        12            17888           17888            0           1
#>  9 SUD        13            18342           18342            0           1
#> 10 SUD        16            18088           18088            0           1
#> # ℹ 19 more rows
#> # ℹ 2 more variables: valid_in_claim <int>, valid_in_hosp <int>
…
