Intro • healthdb
…
bind_source(result_list,
  # output_name = c(names in the list elements)
  src = "src",
  uid = "uid",
  clnt_id = "clnt_id",
  flag_date = c("flag_restrict_date", NA),
  force_proceed = TRUE
)
#> # A tibble: 97 × 5
#>    src_No src     uid clnt_id flag_date
#>     <int> <chr> <int>   <int>     <int>
#>  1      1 claim    25       3         0
#>  2      1 claim    46       4         0
#>  3      1 claim    40       5         0
#>  4      1 claim    10       8         0
#>  5      1 claim    41      12         0
#>  6      1 claim    22      13         0
#>  7      1 claim     3      15         0
#>  8      1 claim    14      16         0
#>  9      1 claim    26      17         0
#> 10      1 claim     1      18         0
#> # ℹ 87 more rows
…
